<?xml version="1.0" standalone="no"?>
<!DOCTYPE svg PUBLIC "-//W3C//DTD SVG 20010904//EN"
 "http://www.w3.org/TR/2001/REC-SVG-20010904/DTD/svg10.dtd">
<svg version="1.0" xmlns="http://www.w3.org/2000/svg"
 width="512.000000pt" height="512.000000pt" viewBox="0 0 512.000000 512.000000"
 preserveAspectRatio="xMidYMid meet">
<metadata>
Created by potrace 1.15, written by Peter Selinger 2001-2017
</metadata>
<g transform="translate(0.000000,512.000000) scale(0.100000,-0.100000)"
fill="#c1a164" stroke="none">
<path d="M1968 5109 c-395 -25 -777 -90 -1003 -169 -208 -74 -322 -160 -373
-283 -52 -123 -97 -333 -127 -587 -26 -213 -20 -196 -73 -211 -68 -19 -145
-97 -166 -168 -22 -77 -23 -582 -1 -657 17 -58 68 -122 119 -149 l36 -20 -6
-475 c-7 -493 4 -1014 31 -1426 15 -240 23 -278 62 -325 42 -50 77 -59 223
-59 l130 0 0 -173 c0 -205 11 -254 67 -311 21 -21 61 -50 88 -64 46 -25 60
-27 165 -27 127 0 161 11 235 77 69 60 75 83 75 303 l0 195 1155 0 1155 0 0
-181 c0 -109 5 -197 12 -220 16 -56 70 -114 136 -146 52 -26 67 -28 167 -28
123 0 170 15 237 74 69 60 78 96 78 310 l0 189 113 3 c123 4 160 18 201 72 21
28 21 29 24 1118 l4 1090 38 19 c52 27 108 95 125 154 22 75 21 580 -1 657
-21 73 -98 149 -169 169 -28 7 -51 14 -53 15 -1 1 -11 71 -22 156 -44 339 -96
540 -171 659 -131 208 -656 356 -1474 415 -217 16 -817 18 -1037 4z m1732
-639 l0 -170 -1160 0 -1160 0 0 170 0 170 1160 0 1160 0 0 -170z m410 -1200
l0 -820 -1570 0 -1570 0 0 820 0 820 1570 0 1570 0 0 -820z m-2563 -1661 c244
-117 243 -459 -1 -579 -145 -72 -316 -25 -408 111 -45 66 -62 132 -55 210 9
104 73 202 166 252 98 54 194 56 298 6z m2290 0 c244 -117 244 -459 -1 -579
-50 -25 -77 -32 -127 -32 -151 -2 -257 69 -316 211 -62 151 10 326 165 405 83
43 183 41 279 -5z"/>
</g>
</svg>
